<?xml  version="1.0" encoding="UTF-8"?>
<!DOCTYPE svg PUBLIC "-//W3C//DTD SVG 1.0//EN" "http://www.w3.org/TR/2001/REC-SVG-20010904/DTD/svg10.dtd" >
<svg xmlns="http://www.w3.org/2000/svg" >
<metadata>
<version>1.0</version>
<id><![CDATA[Helvetica Neue LT W01 67 Md Cn]]></id>
<vendor>Monotype Imaging Inc.</vendor>
<credits>
<name>Fonts.com WebFonts</name>
<URL>http://webfonts.fonts.com</URL>
<role>Home of the Web fonts</role>
</credits>
<license>
<URL>http://webfonts.fonts.com/Legal</URL>
</license>
<copyright><![CDATA[Copyright © 2014 Monotype Imaging Inc. All rights reserved.]]></copyright>
<trademark><![CDATA[Neue Helvetica is a trademark of Monotype Imaging Inc. registered in the U.S. Patent and Trademark Office and may be registered in certain other jurisdictions.]]></trademark>
<licensee>
<name></name>
</licensee>
</metadata>
<defs >
<font horiz-adv-x="447" id="0134ff8c-b1ae-47f0-9219-d1bdce3ec1db">
<font-face font-family="Helvetica Neue LT W01 67 Md Cn" panose-1="2 11 6 6 3 5 2 2 2 4" ascent="958" descent="-223" units-per-em="1000" alphabetic="0">
</font-face>
<missing-glyph horiz-adv-x="512" d="M512 718V0H0V718H512ZM462 50V667H50V50H462ZM259 609Q312 609 347 573T383 478Q383 443 370 417T319 357Q283 324 277 306T271 234H225L223 253Q223 306 236 332T290 398Q316 424 324 439T332 474Q332 508 310 533T256 559Q185 559 174 464L124 472Q131 543 168 576T259 609ZM222 184H278V117H222V184Z"  />

<glyph unicode="&#xA;" />
<glyph unicode="&#xD;" horiz-adv-x="240" />
<glyph unicode=" " horiz-adv-x="240" />
<glyph unicode="!" horiz-adv-x="278" d="M196 714V488L179 192H99L82 488V714H196ZM196 114V0H82V114H196Z"  />
<glyph unicode="&quot;" horiz-adv-x="426" d="M162 714V428H76V714H162ZM350 714V428H264V714H350Z"  />
<glyph unicode="#" horiz-adv-x="480" d="M235 694L207 494H313L341 694H424L396 494H483V420H386L366 274H454V200H356L328 0H245L273 200H167L139 0H56L84 200H-3V274H94L114 420H26V494H124L152 694H235ZM177 274H283L303 420H197L177 274Z"  />
<glyph unicode="$" horiz-adv-x="480" d="M216 778H260V708Q348 708 399 658T450 521V510H336V522Q336 570 319 593T260 622V401L320 380Q389 356 426 315T464 195Q464 -2 260 -14V-100H216V-14Q16 -4 16 198V214H130V200Q130 137 150 109T216 72V304Q127 334 93 359T43 422T26 512Q26 597 79 652T216 708V778ZM140 522Q140 483 159 459T216 418V622Q184 619 162 595T140 522ZM260 72Q302 78 326 106T350 172Q350 222 329 247T260 287V72Z"  />
<glyph unicode="%" horiz-adv-x="759" d="M173 708Q245 708 277 661T310 516Q310 420 278 372T173 324Q101 324 69 371T36 516Q36 613 69 660T173 708ZM574 708L255 -14H180L497 708H574ZM122 516Q122 444 132 415T173 386Q204 386 214 416T224 516Q224 590 213 618T172 646Q142 646 132 616T122 516ZM586 370Q654 370 688 325T723 178Q723 81 691 34T586 -14Q517 -14 483 31T449 178Q449 278 483 324T586 370ZM535 178Q535 107 545 78T586 48Q618 48 627 79T637 178Q637 252 626 280T585 308Q553 308 544 276T535 178Z"  />
<glyph unicode="&amp;" horiz-adv-x="574" d="M263 714Q333 714 376 675T420 569Q420 515 393 479T296 392L421 216Q449 265 449 329V339H539V334Q539 287 522 230T478 136L575 0H454L411 61Q367 20 325 3T231 -14Q137 -14 79 40T21 184Q21 294 121 370L166 404L156 419Q93 505 93 562Q93 632 139 673T263 714ZM189 578Q189 532 247 458Q299 505 311 528T324 573Q324 640 255 640Q226 640 208 624T189 578ZM129 191Q129 145 163 111T250 77Q312 77 361 132L216 336L195 318Q129 266 129 191Z"  />
<glyph unicode="&apos;" horiz-adv-x="240" d="M163 714V428H77V714H163Z"  />
<glyph unicode="(" horiz-adv-x="259" d="M259 714Q145 523 145 266Q145 144 173 25T259 -184H182Q111 -92 74 27T37 265Q37 391 77 509T184 714H259Z"  />
<glyph unicode=")" horiz-adv-x="259" d="M77 714Q148 620 185 503T222 265Q222 139 182 21T75 -184H0Q59 -84 86 23T114 265Q114 393 83 514T0 714H77Z"  />
<glyph unicode="*" horiz-adv-x="370" d="M220 714V590L331 633L354 567L240 534L318 431L262 388L186 493L112 388L56 431L132 534L16 567L39 633L152 589V714H220Z"  />
<glyph unicode="+" horiz-adv-x="600" d="M343 506V296H553V210H343V0H257V210H47V296H257V506H343Z"  />
<glyph unicode="&#x2c;" horiz-adv-x="240" d="M177 132V-1Q177 -69 151 -105T63 -154V-96Q112 -83 113 -14V0H63V132H177Z"  />
<glyph unicode="-" horiz-adv-x="352" d="M307 340V238H45V340H307Z"  />
<glyph unicode="." horiz-adv-x="240" d="M177 132V0H63V132H177Z"  />
<glyph unicode="/" horiz-adv-x="296" d="M306 728L79 -14H-10L217 728H306Z"  />
<glyph unicode="0" horiz-adv-x="480" d="M240 708Q355 708 403 620T452 347Q452 159 403 73T240 -14Q127 -14 78 71T28 347Q28 539 78 623T240 708ZM142 347Q142 187 163 127T240 66Q294 66 316 124T338 347Q338 506 317 567T240 628Q185 628 164 568T142 347Z"  />
<glyph unicode="1" horiz-adv-x="480" d="M321 708V0H207V514H60V588H75Q147 588 191 620T238 708H321Z"  />
<glyph unicode="2" horiz-adv-x="480" d="M244 708Q334 708 389 661T444 519Q444 447 414 391T321 284Q242 220 208 182T160 96H447V0H33Q33 91 69 162T182 294Q265 361 297 410T330 521Q330 571 307 599T242 628Q194 628 169 594T143 480H35Q35 708 244 708Z"  />
<glyph unicode="3" horiz-adv-x="480" d="M243 708Q330 708 381 660T433 527Q433 470 401 424T320 372V369Q378 364 413 320T449 205Q449 -14 233 -14Q31 -14 31 197H139Q139 134 165 100T236 66Q284 66 309 100T335 194Q335 262 309 293T217 325H176V405H218Q319 405 319 525Q319 574 296 601T237 628Q147 628 147 504H39Q39 708 243 708Z"  />
<glyph unicode="4" horiz-adv-x="480" d="M382 708V250H459V159H382V0H274V159H21V257L266 708H382ZM113 250H274V542H272L113 250Z"  />
<glyph unicode="5" horiz-adv-x="480" d="M421 694V603H165L142 417L144 415Q193 470 264 470Q356 470 402 407T448 236Q448 120 393 53T230 -14Q32 -14 32 177V191H140V175Q140 125 165 99T233 72Q334 72 334 233Q334 384 239 384Q204 384 180 367T146 319L45 323L80 694H421Z"  />
<glyph unicode="6" horiz-adv-x="480" d="M251 708Q442 708 442 536H328Q327 578 307 603T252 628Q192 628 166 571T139 396V384L142 382Q182 457 280 457Q359 457 407 401T455 246Q455 -14 238 -14Q161 -14 114 20T46 123T25 326Q25 529 80 618T251 708ZM149 214Q149 147 174 107T247 66Q292 66 316 104T341 218Q341 371 246 371Q196 371 173 335T149 214Z"  />
<glyph unicode="7" horiz-adv-x="480" d="M450 694V604Q358 482 298 313T227 0H107Q119 150 182 309T340 592H30V694H450Z"  />
<glyph unicode="8" horiz-adv-x="480" d="M240 708Q331 708 381 660T431 530Q431 410 333 377V375Q393 362 423 316T454 198Q454 -14 240 -14Q26 -14 26 198Q26 270 56 316T147 375V377Q49 411 49 530Q49 613 99 660T240 708ZM151 522Q151 414 240 414Q329 414 329 522Q329 628 240 628Q151 628 151 522ZM140 200Q140 128 165 97T240 66Q290 66 315 97T340 200Q340 270 316 302T239 334Q140 334 140 200Z"  />
<glyph unicode="9" horiz-adv-x="480" d="M242 708Q355 708 405 632T455 369Q455 163 399 75T229 -14Q38 -14 38 158H152Q152 116 173 91T228 66Q271 66 295 94T330 169T341 310L338 312Q297 237 200 237Q120 237 73 294T25 449Q25 708 242 708ZM139 476Q139 323 233 323Q282 323 306 358T331 480Q331 549 306 588T232 628Q186 628 163 588T139 476Z"  />
<glyph unicode=":" horiz-adv-x="240" d="M177 512V380H63V512H177ZM177 132V0H63V132H177Z"  />
<glyph unicode=";" horiz-adv-x="240" d="M177 512V380H63V512H177ZM177 132V-1Q177 -70 150 -106T63 -154V-96Q113 -82 113 -13V0H63V132H177Z"  />
<glyph unicode="&lt;" horiz-adv-x="600" d="M553 430L149 253L553 76V-10L47 216V290L553 516V430Z"  />
<glyph unicode="=" horiz-adv-x="600" d="M553 400V314H47V400H553ZM553 192V106H47V192H553Z"  />
<glyph unicode="&gt;" horiz-adv-x="600" d="M553 290V216L47 -10V76L451 253L47 430V516L553 290Z"  />
<glyph unicode="?" horiz-adv-x="463" d="M232 728Q328 728 378 678T428 536Q428 484 408 441T341 351Q314 323 293 297T271 233V192H169V248Q169 290 182 319T236 389Q285 435 299 467T314 536Q314 587 293 614T233 642Q143 642 143 501H35Q35 610 85 669T232 728ZM276 114V0H162V114H276Z"  />
<glyph unicode="@" horiz-adv-x="800" d="M416 728Q571 728 670 643T771 423Q771 338 735 274T639 174T517 137Q447 137 447 193V196H445Q390 137 321 137Q260 138 222 183T182 299Q183 404 249 484T405 567Q480 567 520 490L539 549H610L528 254Q524 239 524 230Q524 218 531 213T557 208Q602 209 640 269T680 410Q679 514 603 580T416 648Q333 648 266 609T159 501T120 354Q121 228 204 148T409 66Q563 66 655 154H739Q695 74 608 30T408 -14Q240 -14 136 88T29 358Q29 461 78 546T215 679T416 728ZM268 312Q268 267 290 240T360 211Q393 211 422 240T471 315T490 397Q490 493 409 493Q351 493 311 437T268 312Z"  />
<glyph unicode="A" horiz-adv-x="519" d="M340 714L528 0H409L365 175H156L110 0H-9L194 714H340ZM177 266H346L264 618H262L177 266Z"  />
<glyph unicode="B" horiz-adv-x="537" d="M289 714Q382 714 432 670T482 541Q482 412 377 379V377Q440 366 472 323T505 195Q505 105 446 53T286 0H59V714H289ZM264 413Q311 413 339 441T368 526Q368 582 340 605T256 628H173V413H264ZM288 86Q340 86 365 120T391 211Q391 266 362 299T280 333H173V86H288Z"  />
<glyph unicode="C" horiz-adv-x="519" d="M279 728Q494 728 494 507V491H380V501Q380 642 279 642Q209 642 183 582T156 360Q156 250 167 189T204 100T278 72Q384 72 384 241V256H498V245Q498 117 441 52T278 -14Q149 -14 96 70T42 357Q42 560 96 644T279 728Z"  />
<glyph unicode="D" horiz-adv-x="556" d="M59 714H263Q356 714 410 679T489 575T514 357Q514 208 490 139T411 35T264 0H59V714ZM173 86H268Q341 86 370 146T400 357Q400 510 370 569T268 628H173V86Z"  />
<glyph unicode="E" horiz-adv-x="481" d="M445 714V618H173V420H429V324H173V96H453V0H59V714H445Z"  />
<glyph unicode="F" horiz-adv-x="463" d="M440 714V618H173V420H424V324H173V0H59V714H440Z"  />
<glyph unicode="G" horiz-adv-x="537" d="M279 728Q376 728 432 672T488 517V509H380V522Q380 582 353 612T280 642Q210 642 183 578T156 359Q156 200 182 136T271 72Q337 72 363 123T390 286V290H270V376H498V0H412V83H410Q384 27 347 7T254 -14Q140 -14 91 73T42 356Q42 551 99 639T279 728Z"  />
<glyph unicode="H" horiz-adv-x="556" d="M173 714V428H383V714H497V0H383V332H173V0H59V714H173Z"  />
<glyph unicode="I" horiz-adv-x="222" d="M168 714V0H54V714H168Z"  />
<glyph unicode="J" horiz-adv-x="444" d="M390 714V198Q390 90 343 38T198 -14Q16 -14 16 174V215H124V178Q124 121 143 97T200 72Q241 72 258 99T276 190V714H390Z"  />
<glyph unicode="K" horiz-adv-x="519" d="M173 714V403H175L391 714H516L310 413L538 0H409L236 321L173 231V0H59V714H173Z"  />
<glyph unicode="L" horiz-adv-x="444" d="M160 714V96H436V0H46V714H160Z"  />
<glyph unicode="M" horiz-adv-x="722" d="M237 714L363 185H365L489 714H663V0H555V594H553L409 0H313L169 594H167V0H59V714H237Z"  />
<glyph unicode="N" horiz-adv-x="574" d="M198 714L405 182H407V714H515V0H376L169 546H167V0H59V714H198Z"  />
<glyph unicode="O" horiz-adv-x="556" d="M278 728Q399 728 456 639T514 357Q514 165 458 76T278 -14Q156 -14 99 74T42 357Q42 550 99 639T278 728ZM156 360Q156 208 183 140T278 72Q345 72 372 139T400 360Q400 508 372 575T277 642Q211 642 184 574T156 360Z"  />
<glyph unicode="P" horiz-adv-x="500" d="M287 714Q380 714 431 660T482 506Q482 408 426 352T274 295H173V0H59V714H287ZM254 381Q306 381 337 411T368 504Q368 628 246 628H173V381H254Z"  />
<glyph unicode="Q" horiz-adv-x="556" d="M278 728Q400 728 457 639T514 357Q514 167 458 74L531 -3L463 -64L390 10Q349 -14 278 -14Q156 -14 99 75T42 357Q42 551 99 639T278 728ZM156 360Q156 215 183 144T277 72Q306 72 319 79L265 132L330 197L377 150Q400 222 400 360Q400 505 373 573T277 642Q214 642 185 576T156 360Z"  />
<glyph unicode="R" horiz-adv-x="537" d="M310 714Q399 714 445 666T492 530Q492 455 460 409T373 355V353Q428 348 455 314T485 201L487 107Q487 62 493 40T523 0H394Q381 16 377 42T371 181Q371 254 347 282T267 310H173V0H59V714H310ZM267 396Q319 396 348 427T378 513Q378 628 271 628H173V396H267Z"  />
<glyph unicode="S" horiz-adv-x="519" d="M266 728Q467 728 467 543V524H353V536Q353 642 253 642Q210 642 184 616T157 539Q157 494 181 467T264 418L341 390Q421 361 453 316T486 201Q486 -14 250 -14Q143 -14 88 42T33 207V221H147V205Q147 72 264 72Q313 72 342 101T372 176Q372 232 347 258T274 302L196 329Q116 356 80 404T43 526Q43 621 102 674T266 728Z"  />
<glyph unicode="T" horiz-adv-x="463" d="M457 714V618H290V0H176V618H6V714H457Z"  />
<glyph unicode="U" horiz-adv-x="537" d="M164 714V202Q164 134 190 103T269 72Q373 72 373 202V714H487V210Q487 95 434 41T269 -14Q154 -14 102 42T50 211V714H164Z"  />
<glyph unicode="V" horiz-adv-x="481" d="M115 714L236 144H238L366 714H487L307 0H162L-6 714H115Z"  />
<glyph unicode="W" horiz-adv-x="741" d="M121 714L215 159H217L311 714H431L527 156H529L622 714H735L593 0H461L369 538H367L276 0H144L6 714H121Z"  />
<glyph unicode="X" horiz-adv-x="500" d="M142 714L256 477L368 714H491L318 363L500 0H374L250 258L123 0H0L188 363L16 714H142Z"  />
<glyph unicode="Y" horiz-adv-x="481" d="M123 714L243 406L366 714H485L294 279V0H180V279L-4 714H123Z"  />
<glyph unicode="Z" horiz-adv-x="463" d="M442 714V618L143 96H445V0H18V90L317 618H36V714H442Z"  />
<glyph unicode="[" horiz-adv-x="278" d="M280 714V634H179V-104H280V-184H77V714H280Z"  />
<glyph unicode="\" horiz-adv-x="296" d="M79 728L306 -14H217L-10 728H79Z"  />
<glyph unicode="]" horiz-adv-x="278" d="M201 714V-184H-2V-104H99V634H-2V714H201Z"  />
<glyph unicode="^" horiz-adv-x="600" d="M337 694L543 280H457L300 608L143 280H57L261 694H337Z"  />
<glyph unicode="_" horiz-adv-x="500" d="M500 -75V-125H0V-75H500Z"  />
<glyph unicode="`" horiz-adv-x="222" d="M106 752L166 608H92L-14 752H106Z"  />
<glyph unicode="a" horiz-adv-x="463" d="M234 552Q317 552 360 518T405 420V112Q405 100 412 87T434 74Q446 74 451 77V7Q427 -6 397 -6Q355 -6 332 13T307 65H305Q282 24 251 5T171 -14Q33 -14 31 137Q31 213 61 251T174 311L240 329Q274 338 288 352T303 398Q303 439 286 458T229 478Q183 478 165 452T147 377V375H45V377Q45 470 91 511T234 552ZM139 147Q139 109 158 88T206 66Q253 66 278 99T303 193V284Q280 267 205 243Q139 224 139 147Z"  />
<glyph unicode="b" horiz-adv-x="481" d="M160 714V475H162Q194 552 284 552Q372 552 411 485T450 276Q450 127 406 57T274 -14Q185 -14 156 66H154V0H52V714H160ZM154 264Q154 160 175 116T245 72Q300 72 318 122T336 271Q336 381 317 423T251 466Q198 466 176 423T154 264Z"  />
<glyph unicode="c" horiz-adv-x="444" d="M233 552Q325 552 370 500T416 359H308Q308 472 233 472Q176 472 158 420T139 269Q139 155 161 111T232 66Q313 66 313 196H415Q408 84 364 35T231 -14Q131 -14 81 52T31 269Q31 418 81 485T233 552Z"  />
<glyph unicode="d" horiz-adv-x="481" d="M429 714V0H327V66H325Q296 -14 207 -14Q31 -14 31 276Q31 374 50 435T102 524T197 552Q287 552 319 475H321V714H429ZM145 271Q145 157 166 115T236 72Q290 72 308 122T327 264Q327 368 308 417T229 466Q182 466 164 421T145 271Z"  />
<glyph unicode="e" horiz-adv-x="463" d="M236 552Q339 552 382 495T426 317V255H145V231Q145 137 167 99T235 60Q275 60 298 92T321 180H423Q423 86 371 36T234 -14Q160 -14 121 14T59 101T37 261Q37 411 86 481T236 552ZM318 329V356Q318 478 234 478Q190 478 168 441T145 340V329H318Z"  />
<glyph unicode="f" horiz-adv-x="278" d="M222 722Q257 722 281 719V636H251Q219 636 206 624T193 585V538H281V458H193V0H85V458H10V538H85V589Q85 661 118 691T222 722Z"  />
<glyph unicode="g" horiz-adv-x="481" d="M215 552Q261 552 293 528T333 472H335V538H437V24Q437 -184 236 -184Q148 -184 104 -148T58 -46H160Q161 -75 183 -92T238 -110Q280 -110 304 -84T329 -9V78H327Q312 43 278 24T205 4Q44 4 44 275Q44 419 86 485T215 552ZM152 286Q152 170 172 130T236 90Q283 90 306 134T329 282Q329 376 309 421T242 466Q197 466 175 428T152 286Z"  />
<glyph unicode="h" horiz-adv-x="481" d="M160 714V480L163 478Q212 552 295 552Q365 552 397 516T429 406V0H321V370Q321 422 305 444T247 466Q207 466 184 437T160 363V0H52V714H160Z"  />
<glyph unicode="i" horiz-adv-x="222" d="M165 722V614H57V722H165ZM165 538V0H57V538H165Z"  />
<glyph unicode="j" horiz-adv-x="222" d="M165 722V614H57V722H165ZM165 538V-37Q165 -115 132 -149T23 -184Q0 -184 -24 -181V-98H2Q36 -98 46 -81T57 -20V538H165Z"  />
<glyph unicode="k" horiz-adv-x="463" d="M160 714V313H162L325 538H450L288 331L471 0H353L221 245L160 171V0H52V714H160Z"  />
<glyph unicode="l" horiz-adv-x="222" d="M165 714V0H57V714H165Z"  />
<glyph unicode="m" horiz-adv-x="740" d="M291 552Q387 552 416 470Q463 552 552 552Q683 552 683 409V0H575V369Q575 417 561 441T510 466Q474 466 449 439T424 362V0H316V370Q316 421 301 443T250 466Q212 466 189 438T165 362V0H57V538H159V475H162Q182 510 217 531T291 552Z"  />
<glyph unicode="n" horiz-adv-x="481" d="M295 552Q364 552 396 517T429 406V0H321V370Q321 422 305 444T247 466Q208 466 184 438T160 362V0H52V538H154V475H157Q177 510 213 531T295 552Z"  />
<glyph unicode="o" horiz-adv-x="463" d="M231 552Q333 552 382 485T432 270Q432 -14 231 -14Q31 -14 31 270Q31 419 81 485T231 552ZM139 269Q139 150 160 108T231 66Q283 66 303 107T324 268Q324 368 306 420T230 472Q185 472 162 428T139 269Z"  />
<glyph unicode="p" horiz-adv-x="481" d="M277 552Q366 552 408 480T450 262Q450 125 407 56T284 -14Q193 -14 162 63H160V-176H52V538H154V472H156Q195 552 277 552ZM154 274Q154 173 172 123T246 72Q297 72 316 117T336 267Q336 379 315 422T245 466Q193 466 174 419T154 274Z"  />
<glyph unicode="q" horiz-adv-x="481" d="M207 552Q295 552 325 472H327V538H429V-176H321V63H319Q286 -14 196 -14Q117 -14 74 54T31 262Q31 552 207 552ZM145 268Q145 165 164 119T229 72Q283 72 305 115T327 274Q327 381 305 423T235 466Q189 466 167 424T145 268Z"  />
<glyph unicode="r" horiz-adv-x="315" d="M287 552Q307 552 313 548V438Q295 444 268 444Q163 444 160 323V0H52V538H160V454H162Q200 551 287 552Z"  />
<glyph unicode="s" horiz-adv-x="426" d="M218 552Q384 551 386 404V381H284V393Q284 478 213 478Q138 478 136 408Q136 376 153 360T212 329L284 304Q342 285 370 249T398 150Q397 68 345 27T205 -14Q111 -14 70 27T28 153V173H124V158Q124 107 143 84T208 60Q295 60 296 139Q296 198 237 218L143 251Q85 271 60 307T34 403Q34 478 83 515T218 552Z"  />
<glyph unicode="t" horiz-adv-x="278" d="M186 691V538H274V458H186V136Q186 106 196 93T235 80Q258 80 274 83V3Q238 -6 183 -6Q123 -6 101 24T78 121V458H4V538H78V691H186Z"  />
<glyph unicode="u" horiz-adv-x="481" d="M160 538V152Q160 108 178 90T233 72Q273 72 297 97T321 162V538H429V0H327V63H324Q304 27 268 7T186 -14Q114 -14 83 29T52 161V538H160Z"  />
<glyph unicode="v" horiz-adv-x="426" d="M123 538L217 114H219L304 538H419L277 0H151L7 538H123Z"  />
<glyph unicode="w" horiz-adv-x="685" d="M127 538L202 114H204L284 538H406L486 114H488L562 538H670L547 0H426L342 418H340L263 0H137L15 538H127Z"  />
<glyph unicode="x" horiz-adv-x="426" d="M129 538L213 360L301 538H417L277 279L423 0H306L212 199L118 0H3L150 279L11 538H129Z"  />
<glyph unicode="y" horiz-adv-x="426" d="M124 538L217 134H219L305 538H418L280 19Q249 -104 216 -144T107 -184Q57 -184 39 -180V-94Q60 -98 80 -98Q108 -98 124 -87T150 -47L161 -12L8 538H124Z"  />
<glyph unicode="z" horiz-adv-x="407" d="M382 538V449L156 91H382V0H25V84L260 447H39V538H382Z"  />
<glyph unicode="{" horiz-adv-x="278" d="M271 652H238Q209 652 200 633T190 584V399Q190 353 166 316T98 266V264Q135 254 162 219T190 132V-54Q190 -96 203 -109T240 -122H271V-184H200Q151 -184 120 -147T88 -55V131Q88 171 64 200T7 232V298Q40 300 64 330T88 399V584Q88 641 120 677T201 714H271V652Z"  />
<glyph unicode="|" horiz-adv-x="222" d="M154 728V-14H68V728H154Z"  />
<glyph unicode="}" horiz-adv-x="278" d="M78 714Q125 714 157 678T190 584V399Q190 360 214 330T271 298V232Q234 228 212 197T190 131V-53Q190 -108 159 -146T78 -184H7V-122H39Q62 -122 75 -108T88 -55V132Q88 183 115 218T180 264V266Q142 277 115 312T88 398V584Q88 614 79 633T40 652H7V714H78Z"  />
<glyph unicode="~" horiz-adv-x="600" d="M531 261Q478 175 406 174Q377 174 348 185T291 210T239 235T193 246Q149 246 105 169L69 245Q115 330 194 332Q223 332 252 322T309 297T363 271T407 260Q451 260 495 337L531 261Z"  />
<glyph unicode="&#xA0;" horiz-adv-x="240" />
<glyph unicode="&#xA1;" horiz-adv-x="278" d="M196 538V424H82V538H196ZM179 346L196 50V-176H82V50L99 346H179Z"  />
<glyph unicode="&#xA2;" horiz-adv-x="480" d="M224 627H268V552Q345 548 388 499T432 359H324Q324 406 310 436T268 472V66Q330 83 330 196H432Q426 93 388 42T268 -14V-102H224V-14Q134 -6 91 61T48 269Q48 409 91 476T224 552V627ZM156 269Q156 181 170 131T224 66V472Q186 461 171 413T156 269Z"  />
<glyph unicode="&#xA3;" horiz-adv-x="480" d="M244 708Q343 708 399 658T456 513V502H348V510Q348 566 323 597T249 628Q204 628 178 604T151 542Q151 494 178 439L206 383H372V315H232Q242 291 242 257Q242 212 218 174T125 83L127 79Q163 102 200 102Q224 102 264 87Q304 72 325 72Q338 72 353 76T430 114L468 35Q412 1 384 -6T321 -14Q285 -14 230 6Q174 25 147 25Q111 25 52 -6L12 71Q134 157 134 249Q134 279 116 315H18V383H87Q54 451 46 476T37 529Q37 607 94 657T244 708Z"  />
<glyph unicode="&#xA4;" horiz-adv-x="480" d="M102 531Q166 577 240 577Q314 577 378 531L429 582L474 537L423 485Q470 423 470 347Q470 268 423 209L474 157L429 112L377 164Q318 117 240 117Q167 117 102 164L51 112L6 157L57 208Q10 269 10 347Q10 428 57 486L6 537L51 582L102 531ZM90 347Q90 283 133 237T240 191Q304 191 347 237T390 347Q390 415 345 459T239 503Q178 503 134 459T90 347Z"  />
<glyph unicode="&#xA5;" horiz-adv-x="480" d="M126 694L240 410L359 694H478L331 368H431V300H301L290 277V230H431V162H290V0H182V162H41V230H182V277L172 300H41V368H142L2 694H126Z"  />
<glyph unicode="&#xA6;" horiz-adv-x="222" d="M154 728V451H68V728H154ZM154 263V-14H68V263H154Z"  />
<glyph unicode="&#xA7;" horiz-adv-x="481" d="M241 728Q326 728 375 688T424 571H316Q316 648 238 648Q204 648 183 630T161 583Q161 557 181 537T244 494L372 423Q417 398 437 363T457 274Q457 236 438 199T377 135Q434 86 434 19Q434 -65 382 -110T244 -156Q151 -156 101 -109T51 27H159V26Q159 -70 244 -70Q277 -70 298 -50T320 5Q320 41 299 61T237 104L145 154Q78 190 51 229T24 315Q24 403 117 457Q53 492 53 572Q53 643 103 685T241 728ZM120 328Q120 306 133 290T182 254L310 179Q342 203 351 222T361 262Q361 312 302 346L183 415Q138 379 129 362T120 328Z"  />
<glyph unicode="&#xA8;" horiz-adv-x="222" d="M76 734V626H-20V734H76ZM242 734V626H146V734H242Z"  />
<glyph unicode="&#xA9;" horiz-adv-x="800" d="M400 728Q556 728 663 619T771 357Q771 257 721 171T585 36T400 -14Q301 -14 215 35T79 170T29 357Q29 457 79 543T215 678T400 728ZM112 357Q112 232 195 145T400 58Q523 58 605 145T688 357Q688 483 604 569T400 656Q277 656 195 569T112 357ZM411 581Q487 581 533 539T590 428H510Q492 507 413 507Q355 507 322 466T288 358Q288 291 322 250T413 208Q451 208 478 231T510 292H593Q580 217 530 176T404 134Q313 134 258 195T202 358Q202 463 260 522T411 581Z"  />
<glyph unicode="&#xAA;" horiz-adv-x="316" d="M160 708Q276 708 277 629V452Q277 445 281 437T294 429Q303 429 308 431V374Q287 367 268 367Q210 367 205 414H202Q174 367 106 367Q9 367 8 457Q8 506 28 527T104 562L156 575Q178 580 187 588T197 616Q197 652 151 652Q98 652 98 604V602H24Q23 656 54 682T160 708ZM94 466Q94 451 105 440T136 429Q164 429 180 446T197 490V547Q187 540 158 531Q119 520 107 508T94 466Z"  />
<glyph unicode="&#xAB;" horiz-adv-x="407" d="M194 481V371L106 289L194 207V97L50 232V346L194 481ZM357 481V371L269 289L357 207V97L213 232V346L357 481Z"  />
<glyph unicode="&#xAC;" horiz-adv-x="600" d="M553 400V106H467V314H47V400H553Z"  />
<glyph unicode="&#xAD;" horiz-adv-x="352" d="M307 340V238H45V340H307Z"  />
<glyph unicode="&#xAE;" horiz-adv-x="800" d="M417 569Q497 569 535 540T574 447Q574 346 465 327L578 145H493L387 324H324V145H250V569H417ZM406 386Q454 386 477 399T500 450Q500 507 406 507H324V386H406ZM400 728Q556 728 663 619T771 357Q771 257 721 171T585 36T400 -14Q301 -14 215 35T79 170T29 357Q29 457 79 543T215 678T400 728ZM112 357Q112 232 195 145T400 58Q523 58 605 145T688 357Q688 483 604 569T399 656Q277 656 195 569T112 357Z"  />
<glyph unicode="&#xAF;" horiz-adv-x="222" d="M252 711V649H-30V711H252Z"  />
<glyph unicode="&#xB0;" horiz-adv-x="400" d="M200 708Q261 708 305 664T349 559Q349 500 307 455T200 410Q137 410 94 453T51 560Q51 621 95 664T200 708ZM119 559Q119 525 142 502T200 478Q235 478 258 502T281 559Q281 594 257 617T200 640Q166 640 143 617T119 559Z"  />
<glyph unicode="&#xB1;" horiz-adv-x="600" d="M343 506V355H553V269H343V118H257V269H47V355H257V506H343ZM553 86V0H47V86H553Z"  />
<glyph unicode="&#xB2;" horiz-adv-x="324" d="M169 829Q232 829 265 798T298 708Q298 657 276 628T219 572L166 533Q125 504 120 467H295V397H26V401Q26 464 45 506T110 582L170 627Q191 643 202 660T213 707Q213 766 166 766Q140 766 128 749T116 693H32Q32 829 169 829Z"  />
<glyph unicode="&#xB3;" horiz-adv-x="324" d="M159 829Q219 829 254 800T289 716Q289 684 270 661T218 628Q303 609 303 522Q303 462 263 425T158 388Q17 388 17 512V513H99Q104 449 159 449Q191 449 204 470T218 521Q218 591 146 591H121V651H144Q205 651 205 711Q205 768 155 768Q123 768 114 749T104 702H24Q24 766 60 797T159 829Z"  />
<glyph unicode="&#xB4;" horiz-adv-x="222" d="M236 752L130 608H56L116 752H236Z"  />
<glyph unicode="&#xB5;" horiz-adv-x="481" d="M160 538V152Q160 109 177 91T229 72Q269 72 295 98T321 165V538H429V0H327V63H324Q275 -14 210 -14Q179 -14 160 2V-176H52V538H160Z"  />
<glyph unicode="&#xB6;" horiz-adv-x="600" d="M534 -142H443V646H332V-142H241V344Q161 344 107 397T53 526Q53 617 111 665T282 714H534V-142Z"  />
<glyph unicode="&#xB7;" horiz-adv-x="240" d="M120 380Q150 380 171 359T192 308Q192 277 171 257T120 236Q90 236 69 257T48 308Q48 337 68 358T120 380Z"  />
<glyph unicode="&#xB8;" horiz-adv-x="222" d="M96 0H146L104 -60Q120 -56 140 -56Q176 -56 199 -77T222 -132Q222 -174 187 -198T95 -223Q46 -223 4 -205L20 -165Q56 -179 89 -179Q113 -179 127 -169T142 -139Q142 -122 129 -111T96 -99Q76 -99 58 -107L40 -90L96 0Z"  />
<glyph unicode="&#xB9;" horiz-adv-x="324" d="M225 820V397H139V697H46V753Q106 753 132 769T165 820H225Z"  />
<glyph unicode="&#xBA;" horiz-adv-x="316" d="M158 708Q230 708 266 668T302 536Q302 448 267 408T158 367Q84 367 49 406T14 536Q14 626 48 667T158 708ZM100 536Q100 483 113 456T158 429Q186 429 201 453T216 536Q216 589 204 617T158 646Q130 646 115 622T100 536Z"  />
<glyph unicode="&#xBB;" horiz-adv-x="407" d="M194 346V232L50 97V207L138 289L50 371V481L194 346ZM357 346V232L213 97V207L301 289L213 371V481L357 346Z"  />
<glyph unicode="&#xBC;" horiz-adv-x="721" d="M195 705V282H109V582H16V638Q76 638 102 654T135 705H195ZM557 725L174 -31H102L485 725H557ZM625 423V153H677V87H625V0H542V87H381V161L548 423H625ZM542 314L444 153H542V314Z"  />
<glyph unicode="&#xBD;" horiz-adv-x="721" d="M195 705V282H109V582H16V638Q76 638 102 654T135 705H195ZM545 725L162 -31H90L473 725H545ZM558 432Q621 432 654 401T687 311Q687 260 665 231T608 175L555 136Q514 107 509 70H684V0H415V4Q415 67 434 109T499 185L559 230Q580 246 591 263T602 310Q602 369 555 369Q529 369 517 352T505 296H421Q421 432 558 432Z"  />
<glyph unicode="&#xBE;" horiz-adv-x="721" d="M172 714Q232 714 267 685T302 601Q302 569 283 546T231 513Q316 494 316 407Q316 347 276 310T171 273Q30 273 30 397V398H112Q117 334 172 334Q204 334 217 355T231 406Q231 476 159 476H134V536H157Q218 536 218 596Q218 653 168 653Q136 653 127 634T117 587H37Q37 651 73 682T172 714ZM591 725L208 -31H136L519 725H591ZM635 423V153H687V87H635V0H552V87H391V161L558 423H635ZM552 314L454 153H552V314Z"  />
<glyph unicode="&#xBF;" horiz-adv-x="463" d="M301 538V424H187V538H301ZM294 346V284Q294 244 278 213T222 144Q182 108 166 77T149 2Q149 -104 230 -104Q275 -104 297 -71T320 37H428Q428 -74 378 -132T231 -190Q136 -190 86 -141T35 2Q35 101 114 178Q158 221 175 248T192 305V346H294Z"  />
<glyph unicode="&#xC0;" horiz-adv-x="519" d="M340 714L528 0H409L365 175H156L110 0H-9L194 714H340ZM177 266H346L264 618H262L177 266ZM258 916L318 772H244L138 916H258Z"  />
<glyph unicode="&#xC1;" horiz-adv-x="519" d="M340 714L528 0H409L365 175H156L110 0H-9L194 714H340ZM177 266H346L264 618H262L177 266ZM391 916L285 772H211L271 916H391Z"  />
<glyph unicode="&#xC2;" horiz-adv-x="519" d="M340 714L528 0H409L365 175H156L110 0H-9L194 714H340ZM177 266H346L264 618H262L177 266ZM320 916L409 772H318L264 860L207 772H121L212 916H320Z"  />
<glyph unicode="&#xC3;" horiz-adv-x="519" d="M340 714L528 0H409L365 175H156L110 0H-9L194 714H340ZM177 266H346L264 618H262L177 266ZM416 906Q416 860 391 824T330 788Q302 788 265 806Q223 823 210 823Q196 823 186 813T176 783H114Q114 831 142 867T212 903Q230 903 270 886Q304 868 323 868Q354 868 354 906H416Z"  />
<glyph unicode="&#xC4;" horiz-adv-x="519" d="M340 714L528 0H409L365 175H156L110 0H-9L194 714H340ZM177 266H346L264 618H262L177 266ZM230 898V790H134V898H230ZM396 898V790H300V898H396Z"  />
<glyph unicode="&#xC5;" horiz-adv-x="519" d="M340 714L528 0H409L365 175H156L110 0H-9L194 714H340ZM177 266H346L264 618H262L177 266ZM264 958Q311 958 340 928T370 854Q370 809 340 780T264 750Q219 750 189 779T158 854Q158 898 187 927T264 958ZM208 854Q208 831 225 815T264 798Q287 798 303 814T320 854Q320 877 304 893T263 910Q241 910 225 894T208 854Z"  />
<glyph unicode="&#xC6;" horiz-adv-x="741" d="M698 714V618H445V420H684V324H445V96H707V0H337V175H170L107 0H-12L261 714H698ZM328 623L200 266H337V623H328Z"  />
<glyph unicode="&#xC7;" horiz-adv-x="519" d="M279 728Q494 728 494 507V491H380V501Q380 642 279 642Q209 642 183 582T156 360Q156 250 167 189T204 100T278 72Q384 72 384 241V256H498V246Q498 123 446 58T295 -13L263 -60Q279 -56 298 -56Q334 -56 357 -76T381 -132Q381 -172 347 -197T253 -223Q205 -223 163 -205L179 -165Q213 -179 248 -179Q271 -179 286 -169T301 -139Q301 -122 289 -111T254 -99Q235 -99 217 -107L199 -90L247 -12Q138 -4 90 79T42 357Q42 560 96 644T279 728Z"  />
<glyph unicode="&#xC8;" horiz-adv-x="481" d="M445 714V618H173V420H429V324H173V96H453V0H59V714H445ZM233 916L293 772H219L113 916H233Z"  />
<glyph unicode="&#xC9;" horiz-adv-x="481" d="M445 714V618H173V420H429V324H173V96H453V0H59V714H445ZM386 916L280 772H206L266 916H386Z"  />
<glyph unicode="&#xCA;" horiz-adv-x="481" d="M445 714V618H173V420H429V324H173V96H453V0H59V714H445ZM305 916L394 772H303L249 860L192 772H106L197 916H305Z"  />
<glyph unicode="&#xCB;" horiz-adv-x="481" d="M445 714V618H173V420H429V324H173V96H453V0H59V714H445ZM215 898V790H119V898H215ZM381 898V790H285V898H381Z"  />
<glyph unicode="&#xCC;" horiz-adv-x="222" d="M168 714V0H54V714H168ZM100 916L160 772H86L-20 916H100Z"  />
<glyph unicode="&#xCD;" horiz-adv-x="222" d="M168 714V0H54V714H168ZM241 916L135 772H61L121 916H241Z"  />
<glyph unicode="&#xCE;" horiz-adv-x="222" d="M168 714V0H54V714H168ZM166 916L255 772H164L110 860L53 772H-33L58 916H166Z"  />
<glyph unicode="&#xCF;" horiz-adv-x="222" d="M168 714V0H54V714H168ZM76 898V790H-20V898H76ZM242 898V790H146V898H242Z"  />
<glyph unicode="&#xD0;" horiz-adv-x="556" d="M264 714Q357 714 411 679T489 575T514 357Q514 211 490 141T413 36T264 0H59V337H0V406H59V714H264ZM268 86Q342 86 371 147T400 357Q400 507 371 567T268 628H173V406H292V337H173V86H268Z"  />
<glyph unicode="&#xD1;" horiz-adv-x="574" d="M198 714L405 182H407V714H515V0H376L169 546H167V0H59V714H198ZM439 906Q439 860 414 824T353 788Q325 788 288 806Q246 823 233 823Q219 823 209 813T199 783H137Q137 831 165 867T235 903Q253 903 293 886Q327 868 346 868Q377 868 377 906H439Z"  />
<glyph unicode="&#xD2;" horiz-adv-x="556" d="M278 728Q399 728 456 639T514 357Q514 165 458 76T278 -14Q156 -14 99 74T42 357Q42 550 99 639T278 728ZM156 360Q156 208 183 140T278 72Q345 72 372 139T400 360Q400 508 372 575T277 642Q211 642 184 574T156 360ZM262 916L322 772H248L142 916H262Z"  />
<glyph unicode="&#xD3;" horiz-adv-x="556" d="M278 728Q399 728 456 639T514 357Q514 165 458 76T278 -14Q156 -14 99 74T42 357Q42 550 99 639T278 728ZM156 360Q156 208 183 140T278 72Q345 72 372 139T400 360Q400 508 372 575T277 642Q211 642 184 574T156 360ZM415 916L309 772H235L295 916H415Z"  />
<glyph unicode="&#xD4;" horiz-adv-x="556" d="M278 728Q399 728 456 639T514 357Q514 165 458 76T278 -14Q156 -14 99 74T42 357Q42 550 99 639T278 728ZM156 360Q156 208 183 140T278 72Q345 72 372 139T400 360Q400 508 372 575T277 642Q211 642 184 574T156 360ZM334 916L423 772H332L278 860L221 772H135L226 916H334Z"  />
<glyph unicode="&#xD5;" horiz-adv-x="556" d="M278 728Q399 728 456 639T514 357Q514 165 458 76T278 -14Q156 -14 99 74T42 357Q42 550 99 639T278 728ZM156 360Q156 208 183 140T278 72Q345 72 372 139T400 360Q400 508 372 575T277 642Q211 642 184 574T156 360ZM430 906Q430 860 405 824T344 788Q316 788 279 806Q237 823 224 823Q210 823 200 813T190 783H128Q128 831 156 867T226 903Q244 903 284 886Q318 868 337 868Q368 868 368 906H430Z"  />
<glyph unicode="&#xD6;" horiz-adv-x="556" d="M278 728Q399 728 456 639T514 357Q514 165 458 76T278 -14Q156 -14 99 74T42 357Q42 550 99 639T278 728ZM156 360Q156 208 183 140T278 72Q345 72 372 139T400 360Q400 508 372 575T277 642Q211 642 184 574T156 360ZM244 898V790H148V898H244ZM410 898V790H314V898H410Z"  />
<glyph unicode="&#xD7;" horiz-adv-x="600" d="M474 483L530 427L355 253L530 79L474 23L299 198L126 23L70 79L244 253L70 427L126 483L299 309L474 483Z"  />
<glyph unicode="&#xD8;" horiz-adv-x="556" d="M420 765L471 741L438 664Q514 577 514 357Q514 165 458 76T278 -14Q210 -14 164 14L136 -52L85 -28L118 50Q42 138 42 357Q42 551 99 639T278 728Q347 728 393 700L420 765ZM156 359Q156 243 172 179H174L354 607Q328 642 277 642Q213 642 185 577T156 359ZM383 535L203 107Q228 72 278 72Q344 72 372 140T400 360Q400 470 385 535H383Z"  />
<glyph unicode="&#xD9;" horiz-adv-x="537" d="M164 714V202Q164 134 190 103T269 72Q373 72 373 202V714H487V210Q487 95 434 41T269 -14Q154 -14 102 42T50 211V714H164ZM252 916L312 772H238L132 916H252Z"  />
<glyph unicode="&#xDA;" horiz-adv-x="537" d="M164 714V202Q164 134 190 103T269 72Q373 72 373 202V714H487V210Q487 95 434 41T269 -14Q154 -14 102 42T50 211V714H164ZM405 916L299 772H225L285 916H405Z"  />
<glyph unicode="&#xDB;" horiz-adv-x="537" d="M164 714V202Q164 134 190 103T269 72Q373 72 373 202V714H487V210Q487 95 434 41T269 -14Q154 -14 102 42T50 211V714H164ZM324 916L413 772H322L268 860L211 772H125L216 916H324Z"  />
<glyph unicode="&#xDC;" horiz-adv-x="537" d="M164 714V202Q164 134 190 103T269 72Q373 72 373 202V714H487V210Q487 95 434 41T269 -14Q154 -14 102 42T50 211V714H164ZM234 898V790H138V898H234ZM400 898V790H304V898H400Z"  />
<glyph unicode="&#xDD;" horiz-adv-x="481" d="M123 714L243 406L366 714H485L294 279V0H180V279L-4 714H123ZM381 916L275 772H201L261 916H381Z"  />
<glyph unicode="&#xDE;" horiz-adv-x="500" d="M173 714V578H284Q380 578 431 525T482 370Q482 272 427 216T274 159H173V0H59V714H173ZM253 245Q306 245 337 275T368 368Q368 431 339 461T246 492H173V245H253Z"  />
<glyph unicode="&#xDF;" horiz-adv-x="481" d="M232 722Q323 722 371 680T419 558Q419 495 395 460T319 410V408Q386 401 418 352T450 222Q450 111 401 53T259 -6H209V80H235Q336 80 336 220Q336 363 237 363H211V443H227Q264 443 287 470T311 542Q311 642 231 642Q152 642 152 540V0H44V534Q44 722 232 722Z"  />
<glyph unicode="&#xE0;" horiz-adv-x="463" d="M234 552Q317 552 360 518T405 420V112Q405 100 412 87T434 74Q446 74 451 77V7Q427 -6 397 -6Q355 -6 332 13T307 65H305Q282 24 251 5T171 -14Q33 -14 31 137Q31 213 61 251T174 311L240 329Q274 338 288 352T303 398Q303 439 286 458T229 478Q183 478 165 452T147 377V375H45V377Q45 470 91 511T234 552ZM139 147Q139 109 158 88T206 66Q253 66 278 99T303 193V284Q280 267 205 243Q139 224 139 147ZM215 752L275 608H201L95 752H215Z"  />
<glyph unicode="&#xE1;" horiz-adv-x="463" d="M234 552Q317 552 360 518T405 420V112Q405 100 412 87T434 74Q446 74 451 77V7Q427 -6 397 -6Q355 -6 332 13T307 65H305Q282 24 251 5T171 -14Q33 -14 31 137Q31 213 61 251T174 311L240 329Q274 338 288 352T303 398Q303 439 286 458T229 478Q183 478 165 452T147 377V375H45V377Q45 470 91 511T234 552ZM139 147Q139 109 158 88T206 66Q253 66 278 99T303 193V284Q280 267 205 243Q139 224 139 147ZM364 752L258 608H184L244 752H364Z"  />
<glyph unicode="&#xE2;" horiz-adv-x="463" d="M234 552Q317 552 360 518T405 420V112Q405 100 412 87T434 74Q446 74 451 77V7Q427 -6 397 -6Q355 -6 332 13T307 65H305Q282 24 251 5T171 -14Q33 -14 31 137Q31 213 61 251T174 311L240 329Q274 338 288 352T303 398Q303 439 286 458T229 478Q183 478 165 452T147 377V375H45V377Q45 470 91 511T234 552ZM139 147Q139 109 158 88T206 66Q253 66 278 99T303 193V284Q280 267 205 243Q139 224 139 147ZM285 752L374 608H283L229 696L172 608H86L177 752H285Z"  />
<glyph unicode="&#xE3;" horiz-adv-x="463" d="M234 552Q317 552 360 518T405 420V112Q405 100 412 87T434 74Q446 74 451 77V7Q427 -6 397 -6Q355 -6 332 13T307 65H305Q282 24 251 5T171 -14Q33 -14 31 137Q31 213 61 251T174 311L240 329Q274 338 288 352T303 398Q303 439 286 458T229 478Q183 478 165 452T147 377V375H45V377Q45 470 91 511T234 552ZM139 147Q139 109 158 88T206 66Q253 66 278 99T303 193V284Q280 267 205 243Q139 224 139 147ZM381 742Q381 699 356 662T295 624Q268 624 228 642Q191 659 175 659Q160 659 151 648T141 619H79Q80 669 107 704T177 739Q197 739 235 722Q270 704 288 704Q319 704 319 742H381Z"  />
<glyph unicode="&#xE4;" horiz-adv-x="463" d="M234 552Q317 552 360 518T405 420V112Q405 100 412 87T434 74Q446 74 451 77V7Q427 -6 397 -6Q355 -6 332 13T307 65H305Q282 24 251 5T171 -14Q33 -14 31 137Q31 213 61 251T174 311L240 329Q274 338 288 352T303 398Q303 439 286 458T229 478Q183 478 165 452T147 377V375H45V377Q45 470 91 511T234 552ZM139 147Q139 109 158 88T206 66Q253 66 278 99T303 193V284Q280 267 205 243Q139 224 139 147ZM195 734V626H99V734H195ZM361 734V626H265V734H361Z"  />
<glyph unicode="&#xE5;" horiz-adv-x="463" d="M234 552Q317 552 360 518T405 420V112Q405 100 412 87T434 74Q446 74 451 77V7Q427 -6 397 -6Q355 -6 332 13T307 65H305Q282 24 251 5T171 -14Q33 -14 31 137Q31 213 61 251T174 311L240 329Q274 338 288 352T303 398Q303 439 286 458T229 478Q183 478 165 452T147 377V375H45V377Q45 470 91 511T234 552ZM139 147Q139 109 158 88T206 66Q253 66 278 99T303 193V284Q280 267 205 243Q139 224 139 147ZM229 800Q274 800 304 771T335 696Q335 650 305 621T229 592Q184 592 154 621T123 696Q123 741 153 770T229 800ZM173 696Q173 673 189 657T229 640Q254 640 269 657T285 696Q285 720 269 736T228 752Q207 752 190 737T173 696Z"  />
<glyph unicode="&#xE6;" horiz-adv-x="704" d="M233 552Q331 552 360 483Q380 517 416 534T493 552Q585 552 626 495T667 316V255H398V213Q398 60 479 60Q514 60 538 89T563 180H665Q665 91 615 39T479 -14Q366 -14 329 84Q309 36 271 11T184 -14Q118 -14 75 24T31 137Q31 202 58 241T164 302L249 324Q276 331 285 345T295 397Q295 478 229 478Q188 478 168 455T147 377V375H45V377Q45 472 92 512T233 552ZM559 329V357Q559 478 480 478Q443 478 421 442T399 348V329H559ZM139 142Q139 107 157 87T202 66Q296 66 296 189V276Q286 264 218 244Q177 232 158 212T139 142Z"  />
<glyph unicode="&#xE7;" horiz-adv-x="444" d="M233 552Q325 552 370 499T416 359H308Q308 472 233 472Q176 472 158 420T139 269Q139 156 161 111T232 66Q313 66 313 196H415Q408 87 367 39T247 -13L215 -60Q229 -56 250 -56Q288 -56 310 -77T333 -132Q333 -174 298 -198T206 -223Q157 -223 115 -205L131 -165Q163 -179 200 -179Q223 -179 238 -169T253 -139Q253 -120 240 -110T207 -99Q187 -99 169 -107L151 -90L199 -12Q116 -3 74 62T31 269Q31 418 80 485T233 552Z"  />
<glyph unicode="&#xE8;" horiz-adv-x="463" d="M236 552Q339 552 382 495T426 317V255H145V231Q145 137 167 99T235 60Q275 60 298 92T321 180H423Q423 86 371 36T234 -14Q160 -14 121 14T59 101T37 261Q37 411 86 481T236 552ZM318 329V356Q318 478 234 478Q190 478 168 441T145 340V329H318ZM222 752L282 608H208L102 752H222Z"  />
<glyph unicode="&#xE9;" horiz-adv-x="463" d="M236 552Q339 552 382 495T426 317V255H145V231Q145 137 167 99T235 60Q275 60 298 92T321 180H423Q423 86 371 36T234 -14Q160 -14 121 14T59 101T37 261Q37 411 86 481T236 552ZM318 329V356Q318 478 234 478Q190 478 168 441T145 340V329H318ZM371 752L265 608H191L251 752H371Z"  />
<glyph unicode="&#xEA;" horiz-adv-x="463" d="M236 552Q339 552 382 495T426 317V255H145V231Q145 137 167 99T235 60Q275 60 298 92T321 180H423Q423 86 371 36T234 -14Q160 -14 121 14T59 101T37 261Q37 411 86 481T236 552ZM318 329V356Q318 478 234 478Q190 478 168 441T145 340V329H318ZM292 752L381 608H290L236 696L179 608H93L184 752H292Z"  />
<glyph unicode="&#xEB;" horiz-adv-x="463" d="M236 552Q339 552 382 495T426 317V255H145V231Q145 137 167 99T235 60Q275 60 298 92T321 180H423Q423 86 371 36T234 -14Q160 -14 121 14T59 101T37 261Q37 411 86 481T236 552ZM318 329V356Q318 478 234 478Q190 478 168 441T145 340V329H318ZM202 734V626H106V734H202ZM368 734V626H272V734H368Z"  />
<glyph unicode="&#xEC;" horiz-adv-x="222" d="M165 538V0H57V538H165ZM102 752L162 608H88L-18 752H102Z"  />
<glyph unicode="&#xED;" horiz-adv-x="222" d="M165 538V0H57V538H165ZM239 752L133 608H59L119 752H239Z"  />
<glyph unicode="&#xEE;" horiz-adv-x="222" d="M165 538V0H57V538H165ZM166 752L255 608H164L110 696L53 608H-33L58 752H166Z"  />
<glyph unicode="&#xEF;" horiz-adv-x="222" d="M165 538V0H57V538H165ZM76 734V626H-20V734H76ZM242 734V626H146V734H242Z"  />
<glyph unicode="&#xF0;" horiz-adv-x="463" d="M199 727Q241 703 262 685L337 727L369 691L299 652Q374 577 403 490T432 270Q432 -14 231 -14Q31 -14 31 269Q31 538 215 538Q265 538 300 501L302 503Q276 553 221 608L139 563L103 599L181 641Q159 660 123 684L199 727ZM139 268Q139 151 159 109T231 66Q283 66 303 108T324 268Q324 359 305 408T230 458Q185 458 162 414T139 268Z"  />
<glyph unicode="&#xF1;" horiz-adv-x="481" d="M295 552Q364 552 396 517T429 406V0H321V370Q321 422 305 444T247 466Q208 466 184 438T160 362V0H52V538H154V475H157Q177 510 213 531T295 552ZM391 742Q391 699 366 662T305 624Q278 624 238 642Q201 659 185 659Q170 659 161 648T151 619H89Q90 669 117 704T187 739Q207 739 245 722Q280 704 298 704Q329 704 329 742H391Z"  />
<glyph unicode="&#xF2;" horiz-adv-x="463" d="M231 552Q333 552 382 485T432 270Q432 -14 231 -14Q31 -14 31 270Q31 419 81 485T231 552ZM139 269Q139 150 160 108T231 66Q283 66 303 107T324 268Q324 368 306 420T230 472Q185 472 162 428T139 269ZM217 752L277 608H203L97 752H217Z"  />
<glyph unicode="&#xF3;" horiz-adv-x="463" d="M231 552Q333 552 382 485T432 270Q432 -14 231 -14Q31 -14 31 270Q31 419 81 485T231 552ZM139 269Q139 150 160 108T231 66Q283 66 303 107T324 268Q324 368 306 420T230 472Q185 472 162 428T139 269ZM366 752L260 608H186L246 752H366Z"  />
<glyph unicode="&#xF4;" horiz-adv-x="463" d="M231 552Q333 552 382 485T432 270Q432 -14 231 -14Q31 -14 31 270Q31 419 81 485T231 552ZM139 269Q139 150 160 108T231 66Q283 66 303 107T324 268Q324 368 306 420T230 472Q185 472 162 428T139 269ZM287 752L376 608H285L231 696L174 608H88L179 752H287Z"  />
<glyph unicode="&#xF5;" horiz-adv-x="463" d="M231 552Q333 552 382 485T432 270Q432 -14 231 -14Q31 -14 31 270Q31 419 81 485T231 552ZM139 269Q139 150 160 108T231 66Q283 66 303 107T324 268Q324 368 306 420T230 472Q185 472 162 428T139 269ZM383 742Q383 699 358 662T297 624Q270 624 230 642Q193 659 177 659Q162 659 153 648T143 619H81Q82 669 109 704T179 739Q199 739 237 722Q272 704 290 704Q321 704 321 742H383Z"  />
<glyph unicode="&#xF6;" horiz-adv-x="463" d="M231 552Q333 552 382 485T432 270Q432 -14 231 -14Q31 -14 31 270Q31 419 81 485T231 552ZM139 269Q139 150 160 108T231 66Q283 66 303 107T324 268Q324 368 306 420T230 472Q185 472 162 428T139 269ZM197 734V626H101V734H197ZM363 734V626H267V734H363Z"  />
<glyph unicode="&#xF7;" horiz-adv-x="600" d="M300 530Q331 530 351 509T372 458Q372 429 352 408T300 386Q270 386 249 407T228 458Q228 488 249 509T300 530ZM553 296V210H47V296H553ZM300 120Q329 120 350 100T372 48Q372 19 352 -2T300 -24Q270 -24 249 -3T228 48Q228 80 249 100T300 120Z"  />
<glyph unicode="&#xF8;" horiz-adv-x="463" d="M354 597L402 571L369 501Q432 439 432 269Q432 123 384 55T231 -14Q175 -14 138 5L107 -62L59 -36L94 38Q31 101 31 269Q31 419 80 485T231 552Q285 552 324 532L354 597ZM139 269Q139 202 146 153H148L286 450Q264 472 231 472Q184 472 162 427T139 269ZM314 386L177 88Q196 66 231 66Q280 66 302 112T324 269Q324 351 316 386H314Z"  />
<glyph unicode="&#xF9;" horiz-adv-x="481" d="M160 538V152Q160 108 178 90T233 72Q273 72 297 97T321 162V538H429V0H327V63H324Q304 27 268 7T186 -14Q114 -14 83 29T52 161V538H160ZM227 752L287 608H213L107 752H227Z"  />
<glyph unicode="&#xFA;" horiz-adv-x="481" d="M160 538V152Q160 108 178 90T233 72Q273 72 297 97T321 162V538H429V0H327V63H324Q304 27 268 7T186 -14Q114 -14 83 29T52 161V538H160ZM376 752L270 608H196L256 752H376Z"  />
<glyph unicode="&#xFB;" horiz-adv-x="481" d="M160 538V152Q160 108 178 90T233 72Q273 72 297 97T321 162V538H429V0H327V63H324Q304 27 268 7T186 -14Q114 -14 83 29T52 161V538H160ZM297 752L386 608H295L241 696L184 608H98L189 752H297Z"  />
<glyph unicode="&#xFC;" horiz-adv-x="481" d="M160 538V152Q160 108 178 90T233 72Q273 72 297 97T321 162V538H429V0H327V63H324Q304 27 268 7T186 -14Q114 -14 83 29T52 161V538H160ZM207 734V626H111V734H207ZM373 734V626H277V734H373Z"  />
<glyph unicode="&#xFD;" horiz-adv-x="426" d="M124 538L217 134H219L305 538H418L280 19Q249 -104 216 -144T107 -184Q57 -184 39 -180V-94Q60 -98 80 -98Q108 -98 124 -87T150 -47L161 -12L8 538H124ZM351 752L245 608H171L231 752H351Z"  />
<glyph unicode="&#xFE;" horiz-adv-x="481" d="M160 714V475H162Q195 552 284 552Q450 552 450 262Q450 125 407 56T284 -14Q193 -14 162 63H160V-176H52V714H160ZM154 274Q154 170 173 121T246 72Q297 72 316 119T336 267Q336 379 315 422T245 466Q198 466 176 424T154 274Z"  />
<glyph unicode="&#xFF;" horiz-adv-x="426" d="M124 538L217 134H219L305 538H418L280 19Q249 -104 216 -144T107 -184Q57 -184 39 -180V-94Q60 -98 80 -98Q108 -98 124 -87T150 -47L161 -12L8 538H124ZM182 734V626H86V734H182ZM348 734V626H252V734H348Z"  />
<glyph unicode="&#x131;" horiz-adv-x="222" d="M165 538V0H57V538H165Z"  />
<glyph unicode="&#x152;" horiz-adv-x="796" d="M264 728Q361 728 398 670H400V714H754V618H500V420H738V324H500V96H762V0H400V51H398Q358 -14 260 -14Q147 -14 95 75T42 357Q42 550 96 639T264 728ZM156 360Q156 213 183 143T278 72Q340 72 366 112T392 233V480Q392 561 368 601T285 642Q213 642 185 575T156 360Z"  />
<glyph unicode="&#x153;" horiz-adv-x="722" d="M227 552Q277 552 313 535T375 470Q401 514 433 533T516 552Q605 552 648 498T691 311V255H422V215Q422 60 503 60Q542 60 564 93T587 180H689Q689 89 639 38T500 -14Q454 -14 419 7T368 72Q324 -14 220 -14Q127 -14 79 52T31 269Q31 419 80 485T227 552ZM583 329V357Q583 478 505 478Q468 478 446 442T423 351V329H583ZM139 269Q139 161 159 114T227 66Q260 66 280 87T310 145T320 269Q320 383 298 427T227 472Q179 472 159 425T139 269Z"  />
<glyph unicode="&#x160;" horiz-adv-x="519" d="M266 728Q467 728 467 543V524H353V536Q353 642 253 642Q210 642 184 616T157 539Q157 494 181 467T264 418L341 390Q421 361 453 316T486 201Q486 -14 250 -14Q143 -14 88 42T33 207V221H147V205Q147 72 264 72Q313 72 342 101T372 176Q372 232 347 258T274 302L196 329Q116 356 80 404T43 526Q43 621 102 674T266 728ZM208 916L262 828L319 916H405L314 772H206L117 916H208Z"  />
<glyph unicode="&#x161;" horiz-adv-x="426" d="M218 552Q384 551 386 404V381H284V393Q284 478 213 478Q138 478 136 408Q136 376 153 360T212 329L284 304Q342 285 370 249T398 150Q397 68 345 27T205 -14Q111 -14 70 27T28 153V173H124V158Q124 107 143 84T208 60Q295 60 296 139Q296 198 237 218L143 251Q85 271 60 307T34 403Q34 478 83 515T218 552ZM158 752L212 664L269 752H355L264 608H156L67 752H158Z"  />
<glyph unicode="&#x178;" horiz-adv-x="481" d="M123 714L243 406L366 714H485L294 279V0H180V279L-4 714H123ZM210 898V790H114V898H210ZM376 898V790H280V898H376Z"  />
<glyph unicode="&#x17D;" horiz-adv-x="463" d="M442 714V618L143 96H445V0H18V90L317 618H36V714H442ZM183 916L237 828L294 916H380L289 772H181L92 916H183Z"  />
<glyph unicode="&#x17E;" horiz-adv-x="407" d="M382 538V449L156 91H382V0H25V84L260 447H39V538H382ZM156 752L210 664L267 752H353L262 608H154L65 752H156Z"  />
<glyph unicode="&#x192;" horiz-adv-x="480" d="M393 714Q441 714 468 706L453 630Q430 634 410 634Q348 634 329 550L303 434H415L404 366H290L215 0Q196 -100 156 -138T40 -176Q-6 -176 -26 -170L-9 -92Q7 -96 33 -96Q72 -96 87 -76T111 -13L188 366H84L95 434H201L229 563Q245 643 283 678T393 714Z"  />
<glyph unicode="&#x2C6;" horiz-adv-x="222" d="M166 752L255 608H164L110 696L53 608H-33L58 752H166Z"  />
<glyph unicode="&#x2C7;" horiz-adv-x="222" d="M58 752L112 664L169 752H255L164 608H56L-33 752H58Z"  />
<glyph unicode="&#x2DA;" horiz-adv-x="222" d="M111 800Q156 800 186 771T217 696Q217 650 187 621T111 592Q66 592 36 621T5 696Q5 741 35 770T111 800ZM55 696Q55 673 71 657T111 640Q136 640 151 657T167 696Q167 720 151 736T110 752Q89 752 72 737T55 696Z"  />
<glyph unicode="&#x2DC;" horiz-adv-x="222" d="M262 742Q262 699 237 662T176 624Q149 624 109 642Q72 659 56 659Q41 659 32 648T22 619H-40Q-39 669 -12 704T58 739Q78 739 116 722Q151 704 169 704Q200 704 200 742H262Z"  />
<glyph unicode="&#x2013;" horiz-adv-x="500" d="M500 337V241H0V337H500Z"  />
<glyph unicode="&#x2014;" horiz-adv-x="1000" d="M1000 337V241H0V337H1000Z"  />
<glyph unicode="&#x2018;" horiz-adv-x="240" d="M177 656Q127 642 127 572V560H177V428H63V562Q63 630 90 666T177 714V656Z"  />
<glyph unicode="&#x2019;" horiz-adv-x="240" d="M177 714V579Q177 514 150 477T63 428V486Q113 500 113 570V582H63V714H177Z"  />
<glyph unicode="&#x201A;" horiz-adv-x="240" d="M177 132V-3Q177 -69 150 -106T63 -154V-96Q113 -82 113 -14V0H63V132H177Z"  />
<glyph unicode="&#x201C;" horiz-adv-x="426" d="M181 656Q131 643 131 572V560H181V428H67V562Q67 627 93 664T181 714V656ZM359 656Q309 641 309 572V560H359V428H245V562Q245 630 272 666T359 714V656Z"  />
<glyph unicode="&#x201D;" horiz-adv-x="426" d="M181 714V579Q181 511 153 475T67 428V486Q117 499 117 568V582H67V714H181ZM359 714V580Q359 513 332 476T245 428V486Q295 500 295 568V582H245V714H359Z"  />
<glyph unicode="&#x201E;" horiz-adv-x="426" d="M181 132V-2Q181 -71 153 -107T67 -154V-96Q117 -82 117 -14V0H67V132H181ZM359 132V-1Q359 -67 333 -104T245 -154V-96Q295 -82 295 -14V0H245V132H359Z"  />
<glyph unicode="&#x2020;" horiz-adv-x="482" d="M295 714V512H466V421H295V-142H187V421H16V512H187V714H295Z"  />
<glyph unicode="&#x2021;" horiz-adv-x="482" d="M295 714V519H467V433H295V143H467V57H295V-142H187V57H15V143H187V433H15V519H187V714H295Z"  />
<glyph unicode="&#x2022;" horiz-adv-x="500" d="M250 535Q324 535 376 484T428 357Q428 285 376 232T250 179Q175 179 124 231T72 357Q72 433 124 484T250 535Z"  />
<glyph unicode="&#x2026;" horiz-adv-x="1000" d="M224 132V0H110V132H224ZM557 132V0H443V132H557ZM890 132V0H776V132H890Z"  />
<glyph unicode="&#x2030;" horiz-adv-x="1056" d="M162 708Q233 708 266 660T299 516Q299 414 264 369T162 324Q88 324 57 373T25 516Q25 615 59 661T162 708ZM563 708L244 -14H169L486 708H563ZM213 517Q213 586 203 616T162 646Q131 646 121 617T111 516Q111 446 121 416T162 386Q193 386 203 416T213 517ZM575 370Q642 370 677 325T712 178Q712 87 681 37T575 -14Q509 -14 474 31T438 178Q438 271 469 320T575 370ZM626 179Q626 249 616 278T575 308Q544 308 534 279T524 178Q524 108 534 78T575 48Q606 48 616 78T626 179ZM894 370Q961 370 996 325T1031 178Q1031 76 996 31T894 -14Q828 -14 793 31T757 178Q757 280 792 325T894 370ZM945 179Q945 249 935 278T894 308Q863 308 853 279T843 178Q843 108 853 78T894 48Q925 48 935 78T945 179Z"  />
<glyph unicode="&#x2039;" horiz-adv-x="240" d="M192 481V371L104 289L192 207V97L48 232V346L192 481Z"  />
<glyph unicode="&#x203A;" horiz-adv-x="240" d="M192 346V232L48 97V207L136 289L48 371V481L192 346Z"  />
<glyph unicode="&#x2044;" horiz-adv-x="167" d="M311 725L-72 -31H-144L239 725H311Z"  />
<glyph unicode="&#x20AC;" horiz-adv-x="480" d="M308 708Q365 708 406 693T480 639L446 547Q436 569 416 588T374 617T311 628Q249 628 223 582T189 453H413L389 385H185V351V315H370L346 247H189Q189 169 220 118T316 66Q344 66 370 74T421 98T464 144V34Q409 -14 317 -14Q196 -14 140 53T75 247H0L24 315H71L70 349L71 385H0L24 453H75Q92 708 308 708Z"  />
<glyph unicode="&#x2122;" horiz-adv-x="1000" d="M364 714V646H241V302H155V646H32V714H364ZM565 714L677 422L789 714H908V302H828V628H826L705 302H649L528 628H526V302H446V714H565Z"  />
<glyph unicode="&#xE300;" horiz-adv-x="222" d="M106 916L166 772H92L-14 916H106Z"  />
<glyph unicode="&#xE301;" horiz-adv-x="222" d="M236 916L130 772H56L116 916H236Z"  />
<glyph unicode="&#xE302;" horiz-adv-x="222" d="M166 916L255 772H164L110 860L53 772H-33L58 916H166Z"  />
<glyph unicode="&#xE303;" horiz-adv-x="222" d="M58 916L112 828L169 916H255L164 772H56L-33 916H58Z"  />
<glyph unicode="&#xE304;" horiz-adv-x="222" d="M262 906Q262 860 237 824T176 788Q148 788 111 806Q69 823 56 823Q42 823 32 813T22 783H-40Q-40 831 -12 867T58 903Q76 903 116 886Q150 868 169 868Q200 868 200 906H262Z"  />
<glyph unicode="&#xE305;" horiz-adv-x="222" d="M76 898V790H-20V898H76ZM242 898V790H146V898H242Z"  />
<glyph unicode="&#xE308;" horiz-adv-x="222" d="M111 958Q158 958 187 928T217 854Q217 809 187 780T111 750Q66 750 36 779T5 854Q5 898 34 927T111 958ZM55 854Q55 831 72 815T111 798Q134 798 150 814T167 854Q167 877 151 893T110 910Q88 910 72 894T55 854Z"  />


</font>
</defs>
<text x="40" y="40" font-family="Helvetica Neue LT W01 67 Md Cn" font-size="30" fill="#933" >ABCDEFGHIJKLMNOPQRSTUVWXYZ abcdefghijklmnopqrstuvwxyz AÁÀÂÄÅÃÆ CÇ DÐ EÉÈÊË I Í Ì Î Ï NÑ</text>
<text x="40" y="80" font-family="Helvetica Neue LT W01 67 Md Cn" font-size="30" fill="#933" >OÓÒÔÖÕØŒ SŠ UÚÙÛÜ YÝŸ ZŽ Þ aáàâäåãæ cç dð eéèêë i ı í ì î ï nñ oóòôöõøœ sšß uúùûü yýÿ zž</text>
<text x="40" y="120" font-family="Helvetica Neue LT W01 67 Md Cn" font-size="30" fill="#933" >þ 1234567890 ½ ¼ ¾ % ‰ $¢£¥ƒ€¤ † ‡ § ¶ # ^~µ +×± &lt; = &gt; ÷¬ !¡?¿ &quot; &amp; &apos; * ° . , : ; () [ \ ] {} / |</text>
<text x="40" y="160" font-family="Helvetica Neue LT W01 67 Md Cn" font-size="30" fill="#933" >¦ _ ‚ „ … ‹› «» ‘ ’ “ ” • ­ - – — @ © ® ™ ªº ¹²³ ´ ` ˆ ˜ ¨ ¯ · ¸</text>
</svg>
